{
    "compilerOptions": {
        "target": "es2020",
        "allowSyntheticDefaultImports": false,
        "checkJs": false,
        "baseUrl": "./src/",
        "paths": {
            "/script/*": [
                "./script/*"
            ],
            "/GameTrackerJS/*": [
                "./GameTrackerJS/*"
            ],
            "/emcJS/*": [
                "../../emcJS/src/*",
                "../node_modules/emcjs/src/*"
            ],
            "/editors/*": [
                "../../JSEditors/src/*",
                "../node_modules/jseditors/src/*"
            ],
            "/rtc/*": [
                "../../RTCClient/src/*",
                "../node_modules/rtcclient/src/*"
            ]
        }
    }
}