{
    "parse.settings": {
        "category": "spoilerOptions",
        "type": "check",
        "default": true
    },
    "parse.item_association": {
        "category": "spoilerOptions",
        "type": "check",
        "default": false
    },
    "parse.ignore_world_locking": {
        "category": "spoilerOptions",
        "type": "check",
        "default": false,
        "visible": {
            "type": "value",
            "el": "parse.item_association"
        }
    },
    "parse.woth_hints": {
        "category": "spoilerOptions",
        "type": "check",
        "default": false
    },
    "parse.starting_items": {
        "category": "spoilerOptions",
        "type": "check",
        "default": false
    },
    "parse.disabled_locations": {
        "category": "spoilerOptions",
        "type": "check",
        "default": false
    },
    "parse.shops": {
        "category": "spoilerOptions",
        "type": "check",
        "default": false
    },
    "parse.gossip_stones": {
        "category": "spoilerOptions",
        "type": "hidden",
        "default": false
    },
    "parse.barren": {
        "category": "spoilerOptions",
        "type": "check",
        "default": false
    },
    "parse.trials": {
        "category": "spoilerOptions",
        "type": "check",
        "default": false
    },
    "parse.random_settings": {
        "category": "spoilerOptions",
        "type": "check",
        "default": false
    },
    "parse.dungeons": {
        "category": "spoilerOptions",
        "type": "check",
        "default": false
    },
    "parse.dungeonReward": {
        "category": "spoilerOptions",
        "type": "check",
        "default": false
    },
    "parse.multiworld": {
        "category": "spoilerOptions",
        "type": "number",
        "default": 1,
        "min": 1,
        "max": 100
    },
    "parse.entrances": {
        "category": "spoilerOptions",
        "type": "list",
        "values": [
            "parse.entro_dungeons",
            "parse.entro_grottos",
            "parse.entro_indoors",
            "parse.entro_overworld",
            "parse.entro_owls",
            "parse.entro_spawns",
            "parse.entro_warps"
        ],
        "default": []
    }
}